# Exported from ProBuilder
# http://www.procore3d.com/probuilder
# 12/2/2018 5:31:56 PM

mtllib ./Stairs.mtl
o Stairs

g Stairs
v -1.5 0 -4
v 1.5 0 -4
v -1.5 0.1666667 -4
v 1.5 0.1666667 -4
v -1.5 0.1666667 -4
v 1.5 0.1666667 -4
v -1.5 0.1666667 -3.666667
v 1.5 0.1666667 -3.666667
v -1.5 0.1666667 -3.666667
v 1.5 0.1666667 -3.666667
v -1.5 0.3333333 -3.666667
v 1.5 0.3333333 -3.666667
v -1.5 0.3333333 -3.666667
v 1.5 0.3333333 -3.666667
v -1.5 0.3333333 -3.333333
v 1.5 0.3333333 -3.333333
v -1.5 0.3333333 -3.333333
v 1.5 0.3333333 -3.333333
v -1.5 0.5 -3.333333
v 1.5 0.5 -3.333333
v -1.5 0.5 -3.333333
v 1.5 0.5 -3.333333
v -1.5 0.5 -3
v 1.5 0.5 -3
v -1.5 0.5 -3
v 1.5 0.5 -3
v -1.5 0.6666667 -3
v 1.5 0.6666667 -3
v -1.5 0.6666667 -3
v 1.5 0.6666667 -3
v -1.5 0.6666667 -2.666667
v 1.5 0.6666667 -2.666667
v -1.5 0.6666667 -2.666667
v 1.5 0.6666667 -2.666667
v -1.5 0.8333333 -2.666667
v 1.5 0.8333333 -2.666667
v -1.5 0.8333333 -2.666667
v 1.5 0.8333333 -2.666667
v -1.5 0.8333333 -2.333333
v 1.5 0.8333333 -2.333333
v -1.5 0.8333333 -2.333333
v 1.5 0.8333333 -2.333333
v -1.5 1 -2.333333
v 1.5 1 -2.333333
v -1.5 1 -2.333333
v 1.5 1 -2.333333
v -1.5 1 -2
v 1.5 1 -2
v -1.5 1 -2
v 1.5 1 -2
v -1.5 1.166667 -2
v 1.5 1.166667 -2
v -1.5 1.166667 -2
v 1.5 1.166667 -2
v -1.5 1.166667 -1.666667
v 1.5 1.166667 -1.666667
v -1.5 1.166667 -1.666667
v 1.5 1.166667 -1.666667
v -1.5 1.333333 -1.666667
v 1.5 1.333333 -1.666667
v -1.5 1.333333 -1.666667
v 1.5 1.333333 -1.666667
v -1.5 1.333333 -1.333333
v 1.5 1.333333 -1.333333
v -1.5 1.333333 -1.333333
v 1.5 1.333333 -1.333333
v -1.5 1.5 -1.333333
v 1.5 1.5 -1.333333
v -1.5 1.5 -1.333333
v 1.5 1.5 -1.333333
v -1.5 1.5 -1
v 1.5 1.5 -1
v -1.5 1.5 -1
v 1.5 1.5 -1
v -1.5 1.666667 -1
v 1.5 1.666667 -1
v -1.5 1.666667 -1
v 1.5 1.666667 -1
v -1.5 1.666667 -0.6666667
v 1.5 1.666667 -0.6666667
v -1.5 1.666667 -0.6666667
v 1.5 1.666667 -0.6666667
v -1.5 1.833333 -0.6666667
v 1.5 1.833333 -0.6666667
v -1.5 1.833333 -0.6666667
v 1.5 1.833333 -0.6666667
v -1.5 1.833333 -0.3333333
v 1.5 1.833333 -0.3333333
v -1.5 1.833333 -0.3333333
v 1.5 1.833333 -0.3333333
v -1.5 2 -0.3333333
v 1.5 2 -0.3333333
v -1.5 2 -0.3333333
v 1.5 2 -0.3333333
v -1.5 2 0
v 1.5 2 0
v 1.5 0 -4
v 1.5 0 -3.666667
v 1.5 0.1666667 -4
v 1.5 0.1666667 -3.666667
v 1.5 0 -3.666667
v 1.5 0 -3.333333
v 1.5 0.1666667 -3.666667
v 1.5 0.3333333 -3.333333
v 1.5 0.1666667 -3.666667
v 1.5 0.3333333 -3.666667
v 1.5 0.3333333 -3.333333
v 1.5 0 -3.333333
v 1.5 0 -3
v 1.5 0.3333333 -3.333333
v 1.5 0.5 -3
v 1.5 0.3333333 -3.333333
v 1.5 0.5 -3.333333
v 1.5 0.5 -3
v 1.5 0 -3
v 1.5 0 -2.666667
v 1.5 0.5 -3
v 1.5 0.6666667 -2.666667
v 1.5 0.5 -3
v 1.5 0.6666667 -3
v 1.5 0.6666667 -2.666667
v 1.5 0 -2.666667
v 1.5 0 -2.333333
v 1.5 0.6666667 -2.666667
v 1.5 0.8333333 -2.333333
v 1.5 0.6666667 -2.666667
v 1.5 0.8333333 -2.666667
v 1.5 0.8333333 -2.333333
v 1.5 0 -2.333333
v 1.5 0 -2
v 1.5 0.8333333 -2.333333
v 1.5 1 -2
v 1.5 0.8333333 -2.333333
v 1.5 1 -2.333333
v 1.5 1 -2
v 1.5 0 -2
v 1.5 0 -1.666667
v 1.5 1 -2
v 1.5 1.166667 -1.666667
v 1.5 1 -2
v 1.5 1.166667 -2
v 1.5 1.166667 -1.666667
v 1.5 0 -1.666667
v 1.5 0 -1.333333
v 1.5 1.166667 -1.666667
v 1.5 1.333333 -1.333333
v 1.5 1.166667 -1.666667
v 1.5 1.333333 -1.666667
v 1.5 1.333333 -1.333333
v 1.5 0 -1.333333
v 1.5 0 -1
v 1.5 1.333333 -1.333333
v 1.5 1.5 -1
v 1.5 1.333333 -1.333333
v 1.5 1.5 -1.333333
v 1.5 1.5 -1
v 1.5 0 -1
v 1.5 0 -0.6666667
v 1.5 1.5 -1
v 1.5 1.666667 -0.6666667
v 1.5 1.5 -1
v 1.5 1.666667 -1
v 1.5 1.666667 -0.6666667
v 1.5 0 -0.6666667
v 1.5 0 -0.3333333
v 1.5 1.666667 -0.6666667
v 1.5 1.833333 -0.3333333
v 1.5 1.666667 -0.6666667
v 1.5 1.833333 -0.6666667
v 1.5 1.833333 -0.3333333
v 1.5 0 -0.3333333
v 1.5 0 0
v 1.5 1.833333 -0.3333333
v 1.5 2 0
v 1.5 1.833333 -0.3333333
v 1.5 2 -0.3333333
v 1.5 2 0
v -1.5 0 -4
v -1.5 0 -3.666667
v -1.5 0.1666667 -4
v -1.5 0.1666667 -3.666667
v -1.5 0 -3.666667
v -1.5 0 -3.333333
v -1.5 0.1666667 -3.666667
v -1.5 0.3333333 -3.333333
v -1.5 0.1666667 -3.666667
v -1.5 0.3333333 -3.666667
v -1.5 0.3333333 -3.333333
v -1.5 0 -3.333333
v -1.5 0 -3
v -1.5 0.3333333 -3.333333
v -1.5 0.5 -3
v -1.5 0.3333333 -3.333333
v -1.5 0.5 -3.333333
v -1.5 0.5 -3
v -1.5 0 -3
v -1.5 0 -2.666667
v -1.5 0.5 -3
v -1.5 0.6666667 -2.666667
v -1.5 0.5 -3
v -1.5 0.6666667 -3
v -1.5 0.6666667 -2.666667
v -1.5 0 -2.666667
v -1.5 0 -2.333333
v -1.5 0.6666667 -2.666667
v -1.5 0.8333333 -2.333333
v -1.5 0.6666667 -2.666667
v -1.5 0.8333333 -2.666667
v -1.5 0.8333333 -2.333333
v -1.5 0 -2.333333
v -1.5 0 -2
v -1.5 0.8333333 -2.333333
v -1.5 1 -2
v -1.5 0.8333333 -2.333333
v -1.5 1 -2.333333
v -1.5 1 -2
v -1.5 0 -2
v -1.5 0 -1.666667
v -1.5 1 -2
v -1.5 1.166667 -1.666667
v -1.5 1 -2
v -1.5 1.166667 -2
v -1.5 1.166667 -1.666667
v -1.5 0 -1.666667
v -1.5 0 -1.333333
v -1.5 1.166667 -1.666667
v -1.5 1.333333 -1.333333
v -1.5 1.166667 -1.666667
v -1.5 1.333333 -1.666667
v -1.5 1.333333 -1.333333
v -1.5 0 -1.333333
v -1.5 0 -1
v -1.5 1.333333 -1.333333
v -1.5 1.5 -1
v -1.5 1.333333 -1.333333
v -1.5 1.5 -1.333333
v -1.5 1.5 -1
v -1.5 0 -1
v -1.5 0 -0.6666667
v -1.5 1.5 -1
v -1.5 1.666667 -0.6666667
v -1.5 1.5 -1
v -1.5 1.666667 -1
v -1.5 1.666667 -0.6666667
v -1.5 0 -0.6666667
v -1.5 0 -0.3333333
v -1.5 1.666667 -0.6666667
v -1.5 1.833333 -0.3333333
v -1.5 1.666667 -0.6666667
v -1.5 1.833333 -0.6666667
v -1.5 1.833333 -0.3333333
v -1.5 0 -0.3333333
v -1.5 0 0
v -1.5 1.833333 -0.3333333
v -1.5 2 0
v -1.5 1.833333 -0.3333333
v -1.5 2 -0.3333333
v -1.5 2 0
v 1.5 0 0
v -1.5 0 0
v 1.5 2 0
v -1.5 2 0

vn 0 0 -1
vn 0 0 -1
vn 0 0 -1
vn 0 0 -1
vn 0 1 0
vn 0 1 0
vn 0 1 0
vn 0 1 0
vn 0 0 -1
vn 0 0 -1
vn 0 0 -1
vn 0 0 -1
vn 0 1 0
vn 0 1 0
vn 0 1 0
vn 0 1 0
vn 0 0 -1
vn 0 0 -1
vn 0 0 -1
vn 0 0 -1
vn 0 1 0
vn 0 1 0
vn 0 1 0
vn 0 1 0
vn 0 0 -1
vn 0 0 -1
vn 0 0 -1
vn 0 0 -1
vn 0 1 0
vn 0 1 0
vn 0 1 0
vn 0 1 0
vn 0 0 -1
vn 0 0 -1
vn 0 0 -1
vn 0 0 -1
vn 0 1 0
vn 0 1 0
vn 0 1 0
vn 0 1 0
vn 0 0 -1
vn 0 0 -1
vn 0 0 -1
vn 0 0 -1
vn 0 1 0
vn 0 1 0
vn 0 1 0
vn 0 1 0
vn 0 0 -1
vn 0 0 -1
vn 0 0 -1
vn 0 0 -1
vn 0 1 0
vn 0 1 0
vn 0 1 0
vn 0 1 0
vn 0 0 -1
vn 0 0 -1
vn 0 0 -1
vn 0 0 -1
vn 0 1 0
vn 0 1 0
vn 0 1 0
vn 0 1 0
vn 0 0 -1
vn 0 0 -1
vn 0 0 -1
vn 0 0 -1
vn 0 1 0
vn 0 1 0
vn 0 1 0
vn 0 1 0
vn 0 0 -1
vn 0 0 -1
vn 0 0 -1
vn 0 0 -1
vn 0 1 0
vn 0 1 0
vn 0 1 0
vn 0 1 0
vn 0 0 -1
vn 0 0 -1
vn 0 0 -1
vn 0 0 -1
vn 0 1 0
vn 0 1 0
vn 0 1 0
vn 0 1 0
vn 0 0 -1
vn 0 0 -1
vn 0 0 -1
vn 0 0 -1
vn 0 1 0
vn 0 1 0
vn 0 1 0
vn 0 1 0
vn 1 0 0
vn 1 0 0
vn 1 0 0
vn 1 0 0
vn 1 0 0
vn 1 0 0
vn 1 0 0
vn 1 0 0
vn 1 0 0
vn 1 0 0
vn 1 0 0
vn 1 0 0
vn 1 0 0
vn 1 0 0
vn 1 0 0
vn 1 0 0
vn 1 0 0
vn 1 0 0
vn 1 0 0
vn 1 0 0
vn 1 0 0
vn 1 0 0
vn 1 0 0
vn 1 0 0
vn 1 0 0
vn 1 0 0
vn 1 0 0
vn 1 0 0
vn 1 0 0
vn 0.9999999 0 0
vn 0.9999999 0 0
vn 0.9999999 0 0
vn 1 0 0
vn 1 0 0
vn 1 0 0
vn 1 0 0
vn 1 0 0
vn 1 0 0
vn 1 0 0
vn 1 0 0
vn 1 0 0
vn 1 0 0
vn 1 0 0
vn 0.9999999 0 0
vn 0.9999999 0 0
vn 0.9999999 0 0
vn 1 0 0
vn 1 0 0
vn 1 0 0
vn 1 0 0
vn 1 0 0
vn 1 0 0
vn 1 0 0
vn 0.9999999 0 0
vn 1 0 0
vn 1 0 0
vn 0.9999999 0 0
vn 0.9999999 0 0
vn 0.9999999 0 0
vn 0.9999999 0 0
vn 1 0 0
vn 1 0 0
vn 1 0 0
vn 1 0 0
vn 0.9999999 0 0
vn 0.9999999 0 0
vn 0.9999999 0 0
vn 1 0 0
vn 1 0 0
vn 1 0 0
vn 1 0 0
vn 1 0 0
vn 1 0 0
vn 1 0 0
vn 1 0 0
vn 1 0 0
vn 1 0 0
vn 1 0 0
vn 0.9999999 0 0
vn 0.9999999 0 0
vn 0.9999999 0 0
vn -1 0 0
vn -1 0 0
vn -1 0 0
vn -1 0 0
vn -1 0 0
vn -1 0 0
vn -1 0 0
vn -1 0 0
vn -1 0 0
vn -1 0 0
vn -1 0 0
vn -1 0 0
vn -1 0 0
vn -1 0 0
vn -1 0 0
vn -1 0 0
vn -1 0 0
vn -1 0 0
vn -1 0 0
vn -1 0 0
vn -1 0 0
vn -1 0 0
vn -1 0 0
vn -1 0 0
vn -1 0 0
vn -1 0 0
vn -1 0 0
vn -1 0 0
vn -1 0 0
vn -0.9999999 0 0
vn -0.9999999 0 0
vn -0.9999999 0 0
vn -1 0 0
vn -1 0 0
vn -1 0 0
vn -1 0 0
vn -1 0 0
vn -1 0 0
vn -1 0 0
vn -1 0 0
vn -1 0 0
vn -1 0 0
vn -1 0 0
vn -0.9999999 0 0
vn -0.9999999 0 0
vn -0.9999999 0 0
vn -1 0 0
vn -1 0 0
vn -1 0 0
vn -1 0 0
vn -1 0 0
vn -1 0 0
vn -1 0 0
vn -1 0 0
vn -0.9999999 0 0
vn -0.9999999 0 0
vn -1 0 0
vn -0.9999999 0 0
vn -0.9999999 0 0
vn -0.9999999 0 0
vn -1 0 0
vn -1 0 0
vn -1 0 0
vn -1 0 0
vn -0.9999999 0 0
vn -0.9999999 0 0
vn -0.9999999 0 0
vn -1 0 0
vn -1 0 0
vn -1 0 0
vn -1 0 0
vn -1 0 0
vn -1 0 0
vn -1 0 0
vn -1 0 0
vn -1 0 0
vn -1 0 0
vn -1 0 0
vn -0.9999999 0 0
vn -0.9999999 0 0
vn -0.9999999 0 0
vn 0 0 1
vn 0 0 1
vn 0 0 1
vn 0 0 1

vt 0.5 -1
vt -0.5 -1
vt 0.5 0
vt -0.5 0
vt 0.1098872 0.7528786
vt 0.00483048 0.7528786
vt 0.1098872 0.7645516
vt 0.00483048 0.7645516
vt 0.110294 0.7376301
vt 0.004764199 0.7376301
vt 0.110294 0.7527058
vt 0.004764199 0.7527058
vt 0.1098872 0.7528787
vt 0.00483048 0.7528787
vt 0.1098872 0.7645517
vt 0.00483048 0.7645517
vt 0.110294 0.7376301
vt 0.004764199 0.7376301
vt 0.110294 0.7527058
vt 0.004764199 0.7527058
vt 0.1098872 0.7528786
vt 0.00483048 0.7528786
vt 0.1098872 0.7645516
vt 0.00483048 0.7645516
vt 0.110294 0.7376301
vt 0.004764199 0.7376301
vt 0.110294 0.7527058
vt 0.004764199 0.7527058
vt 0.1098872 0.7528787
vt 0.00483048 0.7528787
vt 0.1098872 0.7645517
vt 0.00483048 0.7645517
vt 0.110294 0.7376301
vt 0.004764199 0.7376301
vt 0.110294 0.7527058
vt 0.004764199 0.7527058
vt 0.1098872 0.7528785
vt 0.00483048 0.7528785
vt 0.1098872 0.7645515
vt 0.00483048 0.7645515
vt 0.110294 0.7376301
vt 0.004764199 0.7376301
vt 0.110294 0.7527058
vt 0.004764199 0.7527058
vt 0.1098872 0.7528787
vt 0.00483048 0.7528787
vt 0.1098872 0.7645517
vt 0.00483048 0.7645517
vt 0.110294 0.7376301
vt 0.004764199 0.7376301
vt 0.110294 0.7527058
vt 0.004764199 0.7527058
vt 0.1098872 0.7528786
vt 0.00483048 0.7528786
vt 0.1098872 0.7645516
vt 0.00483048 0.7645516
vt 0.110294 0.7376301
vt 0.004764199 0.7376301
vt 0.110294 0.7527058
vt 0.004764199 0.7527058
vt 0.1098872 0.7528787
vt 0.00483048 0.7528787
vt 0.1098872 0.7645517
vt 0.00483048 0.7645517
vt 0.110294 0.7376301
vt 0.004764199 0.7376301
vt 0.110294 0.7527058
vt 0.004764199 0.7527058
vt 0.1098872 0.7528786
vt 0.00483048 0.7528786
vt 0.1098872 0.7645516
vt 0.00483048 0.7645516
vt 0.110294 0.7376301
vt 0.004764199 0.7376301
vt 0.110294 0.7527058
vt 0.004764199 0.7527058
vt 0.1098872 0.7528786
vt 0.00483048 0.7528786
vt 0.1098872 0.7645516
vt 0.00483048 0.7645516
vt 0.110294 0.7376301
vt 0.004764199 0.7376301
vt 0.110294 0.7527058
vt 0.004764199 0.7527058
vt 0.1098872 0.7528787
vt 0.00483048 0.7528787
vt 0.1098872 0.7645517
vt 0.00483048 0.7645517
vt 0.110294 0.7376301
vt 0.004764199 0.7376301
vt 0.110294 0.7527058
vt 0.004764199 0.7527058
vt 0.1098872 0.7528786
vt 0.00483048 0.7528786
vt 0.1098872 0.7645516
vt 0.00483048 0.7645516
vt 0.1180551 0.7387789
vt 0.1074163 0.7387789
vt 0.1180551 0.7440982
vt 0.1074163 0.7440982
vt 0.1074163 0.7387789
vt 0.09677754 0.7387789
vt 0.1074163 0.7440982
vt 0.09677754 0.7494178
vt 0.1074163 0.7440982
vt 0.1074163 0.7494178
vt 0.09677754 0.7494178
vt 0.09677754 0.7387789
vt 0.08613866 0.7387789
vt 0.09677754 0.7494178
vt 0.08613866 0.7547371
vt 0.09677754 0.7494178
vt 0.09677754 0.7547371
vt 0.08613866 0.7547371
vt 0.08613866 0.7387789
vt 0.07549988 0.7387789
vt 0.08613866 0.7547371
vt 0.07549988 0.7600565
vt 0.08613866 0.7547371
vt 0.08613866 0.7600565
vt 0.07549988 0.7600565
vt 0.07549988 0.7387789
vt 0.06486109 0.7387789
vt 0.07549988 0.7600565
vt 0.06486109 0.765376
vt 0.07549988 0.7600565
vt 0.07549988 0.765376
vt 0.06486103 0.765376
vt 0.06486109 0.7387789
vt 0.05422223 0.7387789
vt 0.06486109 0.765376
vt 0.05422223 0.7706953
vt 0.06486109 0.765376
vt 0.06486109 0.7706953
vt 0.05422223 0.7706953
vt 0.05422223 0.7387789
vt 0.04358346 0.7387789
vt 0.05422223 0.7706953
vt 0.04358346 0.7760147
vt 0.05422223 0.7706953
vt 0.05422223 0.7760147
vt 0.04358346 0.7760147
vt 0.04358346 0.7387789
vt 0.0329446 0.7387789
vt 0.04358346 0.7760147
vt 0.0329446 0.7813342
vt 0.04358346 0.7760147
vt 0.04358346 0.7813342
vt 0.0329446 0.7813342
vt 0.0329446 0.7387789
vt 0.0223058 0.7387789
vt 0.0329446 0.7813342
vt 0.0223058 0.7866535
vt 0.0329446 0.7813342
vt 0.0329446 0.7866535
vt 0.0223058 0.7866535
vt 0.0223058 0.7387789
vt 0.01166703 0.7387789
vt 0.0223058 0.7866535
vt 0.01166703 0.7919729
vt 0.0223058 0.7866535
vt 0.0223058 0.7919729
vt 0.01166703 0.7919729
vt 0.01166703 0.7387789
vt 0.001028258 0.7387789
vt 0.01166703 0.7919729
vt 0.001028258 0.7972924
vt 0.01166703 0.7919729
vt 0.01166703 0.7972924
vt 0.001028258 0.7972924
vt 0.001028258 0.7387789
vt 0.01166703 0.7387789
vt 0.001028258 0.7972924
vt 0.01166703 0.8026118
vt 0.001028258 0.7972924
vt 0.005283747 0.7941008
vt 0.01166703 0.8026118
vt 0.00116919 0.7387432
vt 0.01040081 0.7387432
vt 0.00116919 0.743359
vt 0.01040081 0.743359
vt 0.01040081 0.7387432
vt 0.01963228 0.7387432
vt 0.01040081 0.743359
vt 0.01963228 0.7479748
vt 0.01040081 0.743359
vt 0.01040081 0.7479748
vt 0.01963228 0.7479748
vt 0.01963228 0.7387432
vt 0.02886389 0.7387432
vt 0.01963228 0.7479748
vt 0.02886389 0.7525906
vt 0.01963228 0.7479748
vt 0.01963228 0.7525906
vt 0.02886389 0.7525906
vt 0.02886389 0.7387432
vt 0.03809551 0.7387432
vt 0.02886389 0.7525906
vt 0.03809551 0.7572064
vt 0.02886389 0.7525906
vt 0.02886389 0.7572064
vt 0.03809551 0.7572064
vt 0.03809551 0.7387432
vt 0.04732697 0.7387432
vt 0.03809551 0.7572064
vt 0.04732697 0.7618222
vt 0.03809551 0.7572064
vt 0.03809551 0.7618222
vt 0.04732697 0.7618222
vt 0.04732697 0.7387432
vt 0.05655859 0.7387432
vt 0.04732697 0.7618222
vt 0.05655859 0.7664379
vt 0.04732697 0.7618222
vt 0.04732697 0.7664379
vt 0.05655859 0.7664379
vt 0.05655859 0.7387432
vt 0.06579021 0.7387432
vt 0.05655859 0.7664379
vt 0.06579021 0.7710537
vt 0.05655859 0.7664379
vt 0.05655859 0.7710537
vt 0.06579021 0.7710537
vt 0.06579021 0.7387432
vt 0.07502168 0.7387432
vt 0.06579021 0.7710537
vt 0.07502168 0.7756696
vt 0.06579021 0.7710537
vt 0.06579021 0.7756696
vt 0.07502168 0.7756696
vt 0.07502168 0.7387432
vt 0.0842533 0.7387432
vt 0.07502168 0.7756696
vt 0.0842533 0.7802853
vt 0.07502168 0.7756696
vt 0.07502168 0.7802853
vt 0.0842533 0.7802853
vt 0.0842533 0.7387432
vt 0.09348491 0.7387432
vt 0.0842533 0.7802853
vt 0.09348491 0.7849011
vt 0.0842533 0.7802853
vt 0.0842533 0.7849011
vt 0.09348491 0.7849011
vt 0.09348491 0.7387432
vt 0.1027164 0.7387432
vt 0.09348491 0.7849011
vt 0.1027164 0.7895169
vt 0.09348599 0.7848989
vt 0.09348369 0.7895146
vt 0.1027153 0.7895191
vt 0.1027164 0.7387432
vt 0.1119479 0.7387432
vt 0.1027164 0.7895169
vt 0.1119479 0.7941326
vt 0.1027164 0.7895169
vt 0.1027164 0.7941326
vt 0.1119479 0.7941326
vt 0.219848 0.7248042
vt 0.1173089 0.7248042
vt 0.219848 0.7931635
vt 0.1173089 0.7931635

g Stairs_0
usemtl houses
f 3/3/3 4/4/4 2/2/2 1/1/1
f 7/7/7 8/8/8 6/6/6 5/5/5
f 11/11/11 12/12/12 10/10/10 9/9/9
f 15/15/15 16/16/16 14/14/14 13/13/13
f 19/19/19 20/20/20 18/18/18 17/17/17
f 23/23/23 24/24/24 22/22/22 21/21/21
f 27/27/27 28/28/28 26/26/26 25/25/25
f 31/31/31 32/32/32 30/30/30 29/29/29
f 35/35/35 36/36/36 34/34/34 33/33/33
f 39/39/39 40/40/40 38/38/38 37/37/37
f 43/43/43 44/44/44 42/42/42 41/41/41
f 47/47/47 48/48/48 46/46/46 45/45/45
f 51/51/51 52/52/52 50/50/50 49/49/49
f 55/55/55 56/56/56 54/54/54 53/53/53
f 59/59/59 60/60/60 58/58/58 57/57/57
f 63/63/63 64/64/64 62/62/62 61/61/61
f 67/67/67 68/68/68 66/66/66 65/65/65
f 71/71/71 72/72/72 70/70/70 69/69/69
f 75/75/75 76/76/76 74/74/74 73/73/73
f 79/79/79 80/80/80 78/78/78 77/77/77
f 83/83/83 84/84/84 82/82/82 81/81/81
f 87/87/87 88/88/88 86/86/86 85/85/85
f 91/91/91 92/92/92 90/90/90 89/89/89
f 95/95/95 96/96/96 94/94/94 93/93/93
f 99/99/99 100/100/100 98/98/98 97/97/97
f 103/103/103 104/104/104 102/102/102 101/101/101
f 110/110/110 111/111/111 109/109/109 108/108/108
f 117/117/117 118/118/118 116/116/116 115/115/115
f 124/124/124 125/125/125 123/123/123 122/122/122
f 131/131/131 132/132/132 130/130/130 129/129/129
f 138/138/138 139/139/139 137/137/137 136/136/136
f 145/145/145 146/146/146 144/144/144 143/143/143
f 152/152/152 153/153/153 151/151/151 150/150/150
f 159/159/159 160/160/160 158/158/158 157/157/157
f 166/166/166 167/167/167 165/165/165 164/164/164
f 173/173/173 174/174/174 172/172/172 171/171/171
f 181/181/181 180/180/180 178/178/178 179/179/179
f 185/185/185 184/184/184 182/182/182 183/183/183
f 192/192/192 191/191/191 189/189/189 190/190/190
f 199/199/199 198/198/198 196/196/196 197/197/197
f 206/206/206 205/205/205 203/203/203 204/204/204
f 213/213/213 212/212/212 210/210/210 211/211/211
f 220/220/220 219/219/219 217/217/217 218/218/218
f 227/227/227 226/226/226 224/224/224 225/225/225
f 234/234/234 233/233/233 231/231/231 232/232/232
f 241/241/241 240/240/240 238/238/238 239/239/239
f 248/248/248 247/247/247 245/245/245 246/246/246
f 255/255/255 254/254/254 252/252/252 253/253/253
f 261/261/261 262/262/262 260/260/260 259/259/259

g Stairs_1
usemtl houses
f 105/105/105 106/106/106 107/107/107
f 112/112/112 113/113/113 114/114/114
f 119/119/119 120/120/120 121/121/121
f 126/126/126 127/127/127 128/128/128
f 133/133/133 134/134/134 135/135/135
f 140/140/140 141/141/141 142/142/142
f 147/147/147 148/148/148 149/149/149
f 154/154/154 155/155/155 156/156/156
f 161/161/161 162/162/162 163/163/163
f 168/168/168 169/169/169 170/170/170
f 175/175/175 176/176/176 177/177/177
f 188/188/188 187/187/187 186/186/186
f 195/195/195 194/194/194 193/193/193
f 202/202/202 201/201/201 200/200/200
f 209/209/209 208/208/208 207/207/207
f 216/216/216 215/215/215 214/214/214
f 223/223/223 222/222/222 221/221/221
f 230/230/230 229/229/229 228/228/228
f 237/237/237 236/236/236 235/235/235
f 244/244/244 243/243/243 242/242/242
f 251/251/251 250/250/250 249/249/249
f 258/258/258 257/257/257 256/256/256

